%YAML 1.1
%TAG !u! tag:unity3d.com,2011:
--- !u!114 &11400000
MonoBehaviour:
  m_ObjectHideFlags: 0
  m_CorrespondingSourceObject: {fileID: 0}
  m_PrefabInstance: {fileID: 0}
  m_PrefabAsset: {fileID: 0}
  m_GameObject: {fileID: 0}
  m_Enabled: 1
  m_EditorHideFlags: 0
  m_Script: {fileID: 11500000, guid: 3e9d9a718640cb44a959150e4e7cbc7d, type: 3}
  m_Name: Sister
  m_EditorClassIdentifier: 
  myDifficulty: 1
  word: sister
  myImage: {fileID: 21300000, guid: 0c0b2d8a615cbda4ea4bb220181f99c3, type: 3}
  myAudio: {fileID: 6328846609342149440, guid: 6da0edb944d7f9f4e8459a9bd941f384, type: 3}
  beforeBlank: 'I''m with my '
  afterBlank: .
