%YAML 1.1
%TAG !u! tag:unity3d.com,2011:
--- !u!114 &11400000
MonoBehaviour:
  m_ObjectHideFlags: 0
  m_CorrespondingSourceObject: {fileID: 0}
  m_PrefabInstance: {fileID: 0}
  m_PrefabAsset: {fileID: 0}
  m_GameObject: {fileID: 0}
  m_Enabled: 1
  m_EditorHideFlags: 0
  m_Script: {fileID: 11500000, guid: 3e9d9a718640cb44a959150e4e7cbc7d, type: 3}
  m_Name: Down
  m_EditorClassIdentifier: 
  myDifficulty: 1
  word: down
  myImage: {fileID: 21300000, guid: f6cb2767d5d0d08409ccb81ae3a3922b, type: 3}
  myAudio: {fileID: -6719585599698866672, guid: 6b2ae5bbdf0b7a54eb0831752d8af692, type: 3}
  beforeBlank: 'I''m going '
  afterBlank: ' the stairs.'
