%YAML 1.1
%TAG !u! tag:unity3d.com,2011:
--- !u!114 &11400000
MonoBehaviour:
  m_ObjectHideFlags: 0
  m_CorrespondingSourceObject: {fileID: 0}
  m_PrefabInstance: {fileID: 0}
  m_PrefabAsset: {fileID: 0}
  m_GameObject: {fileID: 0}
  m_Enabled: 1
  m_EditorHideFlags: 0
  m_Script: {fileID: 11500000, guid: 3e9d9a718640cb44a959150e4e7cbc7d, type: 3}
  m_Name: Keep
  m_EditorClassIdentifier: 
  myDifficulty: 1
  word: keep
  myImage: {fileID: 21300000, guid: 31f41605b1e0d3b4cbd28052f4fea259, type: 3}
  myAudio: {fileID: -5805440460576367713, guid: 6bc0b1932904c3e419ec76baea02a5a5, type: 3}
  beforeBlank: 'Please '
  afterBlank: ' it a secret.'
