%YAML 1.1
%TAG !u! tag:unity3d.com,2011:
--- !u!114 &11400000
MonoBehaviour:
  m_ObjectHideFlags: 0
  m_CorrespondingSourceObject: {fileID: 0}
  m_PrefabInstance: {fileID: 0}
  m_PrefabAsset: {fileID: 0}
  m_GameObject: {fileID: 0}
  m_Enabled: 1
  m_EditorHideFlags: 0
  m_Script: {fileID: 11500000, guid: 3e9d9a718640cb44a959150e4e7cbc7d, type: 3}
  m_Name: Cuisine
  m_EditorClassIdentifier: 
  myDifficulty: 2
  word: cuisine
  myImage: {fileID: 21300000, guid: 2c676689ca62e454f9e6e9a19657f1aa, type: 3}
  myAudio: {fileID: 8590515188232399538, guid: 7e01483cac2c7974e88d6efa03c507a2, type: 3}
  beforeBlank: 'Japanese '
  afterBlank: ' makes use of fresh ingredients.'
