%YAML 1.1
%TAG !u! tag:unity3d.com,2011:
--- !u!114 &11400000
MonoBehaviour:
  m_ObjectHideFlags: 0
  m_CorrespondingSourceObject: {fileID: 0}
  m_PrefabInstance: {fileID: 0}
  m_PrefabAsset: {fileID: 0}
  m_GameObject: {fileID: 0}
  m_Enabled: 1
  m_EditorHideFlags: 0
  m_Script: {fileID: 11500000, guid: 3e9d9a718640cb44a959150e4e7cbc7d, type: 3}
  m_Name: Sister
  m_EditorClassIdentifier: 
  myDifficulty: 1
  word: sister
  myImage: {fileID: 21300000, guid: ef95eec3267983949b2a8154ea160f3e, type: 3}
  myAudio: {fileID: -6874262689552243463, guid: edb1d4bf79dd3ba4bbf9cd6545a02dfb, type: 3}
  beforeBlank: 'A picture with my older '
  afterBlank: .
