%YAML 1.1
%TAG !u! tag:unity3d.com,2011:
--- !u!114 &11400000
MonoBehaviour:
  m_ObjectHideFlags: 0
  m_CorrespondingSourceObject: {fileID: 0}
  m_PrefabInstance: {fileID: 0}
  m_PrefabAsset: {fileID: 0}
  m_GameObject: {fileID: 0}
  m_Enabled: 1
  m_EditorHideFlags: 0
  m_Script: {fileID: 11500000, guid: 3e9d9a718640cb44a959150e4e7cbc7d, type: 3}
  m_Name: Children
  m_EditorClassIdentifier: 
  myDifficulty: 2
  word: children
  myImage: {fileID: 21300000, guid: 93ef2102826e40945ab16555548cf979, type: 3}
  myAudio: {fileID: 8633273873498339635, guid: 9272547d19db4434abd6aa6de4e62fe8, type: 3}
  beforeBlank: 'The '
  afterBlank: ' are being playful.'
