%YAML 1.1
%TAG !u! tag:unity3d.com,2011:
--- !u!114 &11400000
MonoBehaviour:
  m_ObjectHideFlags: 0
  m_CorrespondingSourceObject: {fileID: 0}
  m_PrefabInstance: {fileID: 0}
  m_PrefabAsset: {fileID: 0}
  m_GameObject: {fileID: 0}
  m_Enabled: 1
  m_EditorHideFlags: 0
  m_Script: {fileID: 11500000, guid: 3e9d9a718640cb44a959150e4e7cbc7d, type: 3}
  m_Name: Appearance
  m_EditorClassIdentifier: 
  myDifficulty: 2
  word: appearance
  myImage: {fileID: 21300000, guid: 680beec97174f8046afae3f242d85a0f, type: 3}
  myAudio: {fileID: 3204670484413205230, guid: c9b1a4c73b15a0d4b80becd7005d1d12, type: 3}
  beforeBlank: 'I care about my '
  afterBlank: .
