%YAML 1.1
%TAG !u! tag:unity3d.com,2011:
--- !u!114 &11400000
MonoBehaviour:
  m_ObjectHideFlags: 0
  m_CorrespondingSourceObject: {fileID: 0}
  m_PrefabInstance: {fileID: 0}
  m_PrefabAsset: {fileID: 0}
  m_GameObject: {fileID: 0}
  m_Enabled: 1
  m_EditorHideFlags: 0
  m_Script: {fileID: 11500000, guid: 3e9d9a718640cb44a959150e4e7cbc7d, type: 3}
  m_Name: Pattern
  m_EditorClassIdentifier: 
  myDifficulty: 2
  word: pattern
  myImage: {fileID: 21300000, guid: 4883e8b33343a8f47815e9e1cd85ddca, type: 3}
  myAudio: {fileID: -6008266390840893544, guid: 6bf95d6e1bc40cf4792ce743c6be40c7, type: 3}
  beforeBlank: 'There''s a '
  afterBlank: ' of fruits.'
