%YAML 1.1
%TAG !u! tag:unity3d.com,2011:
--- !u!114 &11400000
MonoBehaviour:
  m_ObjectHideFlags: 0
  m_CorrespondingSourceObject: {fileID: 0}
  m_PrefabInstance: {fileID: 0}
  m_PrefabAsset: {fileID: 0}
  m_GameObject: {fileID: 0}
  m_Enabled: 1
  m_EditorHideFlags: 0
  m_Script: {fileID: 11500000, guid: 3e9d9a718640cb44a959150e4e7cbc7d, type: 3}
  m_Name: Understand
  m_EditorClassIdentifier: 
  myDifficulty: 2
  word: understand
  myImage: {fileID: 21300000, guid: dcbca86d757610d478adc77459eee392, type: 3}
  myAudio: {fileID: -7562211714628135372, guid: 9e982cc7e316fa8408a4a498a111205a, type: 3}
  beforeBlank: 'Use a dictionary to '
  afterBlank: ' a word.'
