%YAML 1.1
%TAG !u! tag:unity3d.com,2011:
--- !u!1 &6342827387069121103
GameObject:
  m_ObjectHideFlags: 0
  m_CorrespondingSourceObject: {fileID: 0}
  m_PrefabInstance: {fileID: 0}
  m_PrefabAsset: {fileID: 0}
  serializedVersion: 6
  m_Component:
  - component: {fileID: 7463727522222340483}
  - component: {fileID: 7444035290276097460}
  m_Layer: 0
  m_Name: 1GradeHard
  m_TagString: Untagged
  m_Icon: {fileID: 0}
  m_NavMeshLayer: 0
  m_StaticEditorFlags: 0
  m_IsActive: 1
--- !u!4 &7463727522222340483
Transform:
  m_ObjectHideFlags: 0
  m_CorrespondingSourceObject: {fileID: 0}
  m_PrefabInstance: {fileID: 0}
  m_PrefabAsset: {fileID: 0}
  m_GameObject: {fileID: 6342827387069121103}
  m_LocalRotation: {x: 0, y: 0, z: 0, w: 1}
  m_LocalPosition: {x: 0, y: 0, z: 0}
  m_LocalScale: {x: 1, y: 1, z: 1}
  m_Children: []
  m_Father: {fileID: 0}
  m_RootOrder: 0
  m_LocalEulerAnglesHint: {x: 0, y: 0, z: 0}
--- !u!114 &7444035290276097460
MonoBehaviour:
  m_ObjectHideFlags: 0
  m_CorrespondingSourceObject: {fileID: 0}
  m_PrefabInstance: {fileID: 0}
  m_PrefabAsset: {fileID: 0}
  m_GameObject: {fileID: 6342827387069121103}
  m_Enabled: 1
  m_EditorHideFlags: 0
  m_Script: {fileID: 11500000, guid: 362997957ad91874c94e969b76f5a2b2, type: 3}
  m_Name: 
  m_EditorClassIdentifier: 
  MyWords:
  - {fileID: 11400000, guid: 697a0832ead70e44ea370b163697df0e, type: 2}
  - {fileID: 11400000, guid: 79c9989e1b071f142bd2ff96a06e9a41, type: 2}
  - {fileID: 11400000, guid: b0829ad2adb1fce49823f0482c517208, type: 2}
  - {fileID: 11400000, guid: 4f9c70b38ed06b742a636ef5865b7bfa, type: 2}
  - {fileID: 11400000, guid: 9d32885eae1deff48a5956b6b6e60602, type: 2}
  - {fileID: 11400000, guid: c16b20f66ad28f04ebd63ad1346dcecf, type: 2}
  - {fileID: 11400000, guid: 7f1d33878782cce4091bc40b3ee9a1ef, type: 2}
  - {fileID: 11400000, guid: e38ef0183e8bd9b45b8e8e2948bc8f95, type: 2}
  - {fileID: 11400000, guid: 58385c39b31ce1e4a865bd27c9690412, type: 2}
  - {fileID: 11400000, guid: 810e832de6c09f34ebd9b3e9a7f5c34e, type: 2}
  - {fileID: 11400000, guid: c1d84b7404705a94497d3c842b1ff265, type: 2}
  - {fileID: 11400000, guid: 7fb3cdeab594f0342a3a3977ef00831f, type: 2}
  - {fileID: 11400000, guid: 8bd1079de31477b49a8ac2125237e0f3, type: 2}
  - {fileID: 11400000, guid: 63b283bf99a26e14985a5c8dc77dd40b, type: 2}
  - {fileID: 11400000, guid: 6c4d789d465277f498b697b6d9abcdf0, type: 2}
  - {fileID: 11400000, guid: 0fe1534bd67585e49a5d94c571750a6c, type: 2}
  - {fileID: 11400000, guid: 3a58a0dfbfd647e4b8d87547afae0cf9, type: 2}
  - {fileID: 11400000, guid: 493efc05ae5d1884e9470654788d65bb, type: 2}
  - {fileID: 11400000, guid: 4c3c58f2186236f478f8b546bae35d42, type: 2}
  - {fileID: 11400000, guid: 0c9516541cad21f4ca7a88051f445e42, type: 2}
  - {fileID: 11400000, guid: c8262510074fd8444a4004af950ea150, type: 2}
  timeGiven: 18
  difficulty: 2
