%YAML 1.1
%TAG !u! tag:unity3d.com,2011:
--- !u!1 &6342827387069121103
GameObject:
  m_ObjectHideFlags: 0
  m_CorrespondingSourceObject: {fileID: 0}
  m_PrefabInstance: {fileID: 0}
  m_PrefabAsset: {fileID: 0}
  serializedVersion: 6
  m_Component:
  - component: {fileID: 7463727522222340483}
  - component: {fileID: 7444035290276097460}
  m_Layer: 0
  m_Name: 2GradeModerate
  m_TagString: Untagged
  m_Icon: {fileID: 0}
  m_NavMeshLayer: 0
  m_StaticEditorFlags: 0
  m_IsActive: 1
--- !u!4 &7463727522222340483
Transform:
  m_ObjectHideFlags: 0
  m_CorrespondingSourceObject: {fileID: 0}
  m_PrefabInstance: {fileID: 0}
  m_PrefabAsset: {fileID: 0}
  m_GameObject: {fileID: 6342827387069121103}
  m_LocalRotation: {x: 0, y: 0, z: 0, w: 1}
  m_LocalPosition: {x: 0, y: 0, z: 0}
  m_LocalScale: {x: 1, y: 1, z: 1}
  m_Children: []
  m_Father: {fileID: 0}
  m_RootOrder: 0
  m_LocalEulerAnglesHint: {x: 0, y: 0, z: 0}
--- !u!114 &7444035290276097460
MonoBehaviour:
  m_ObjectHideFlags: 0
  m_CorrespondingSourceObject: {fileID: 0}
  m_PrefabInstance: {fileID: 0}
  m_PrefabAsset: {fileID: 0}
  m_GameObject: {fileID: 6342827387069121103}
  m_Enabled: 1
  m_EditorHideFlags: 0
  m_Script: {fileID: 11500000, guid: 362997957ad91874c94e969b76f5a2b2, type: 3}
  m_Name: 
  m_EditorClassIdentifier: 
  MyWords:
  - {fileID: 11400000, guid: 27b0737bdf05c394d92f717ff7324c32, type: 2}
  - {fileID: 11400000, guid: 3480a13fa3cf201478965a4c871ad150, type: 2}
  - {fileID: 11400000, guid: eea83d39a0fee6b46859a829b42fe184, type: 2}
  - {fileID: 11400000, guid: 090d795e653d193409ba26751cfb6b4a, type: 2}
  - {fileID: 11400000, guid: 6af0d7dec0aa49945a1acf98bd2cdebe, type: 2}
  - {fileID: 11400000, guid: 671bd8398ddb84d439a01ef42a896532, type: 2}
  - {fileID: 11400000, guid: 340b27eb9fb5d324dbcec905baf8159e, type: 2}
  - {fileID: 11400000, guid: b68e6cedd6889944b8a313be105e7360, type: 2}
  - {fileID: 11400000, guid: d5f38e18f20dbf6409693e77dfdd70d0, type: 2}
  - {fileID: 11400000, guid: 3bb9e60a60a06ef489ec63c3b5d56aab, type: 2}
  - {fileID: 11400000, guid: b96105eb93bc7d3418f80034479d7d48, type: 2}
  - {fileID: 11400000, guid: c2e086d9ab296e440895c2145a7265f0, type: 2}
  - {fileID: 11400000, guid: 78f95002d47eb4a468c17cedaf1373fc, type: 2}
  - {fileID: 11400000, guid: abe43069b07065b439d5c83c42dc4ec8, type: 2}
  - {fileID: 11400000, guid: a2378382b5303ba48bf9ac82ec88e66e, type: 2}
  - {fileID: 11400000, guid: 049782f1e0d193c41817a9534f116a45, type: 2}
  - {fileID: 11400000, guid: 12203d9948054df4a8427a3e3506617e, type: 2}
  - {fileID: 11400000, guid: 7062206a25311244b95acac3296aa7c1, type: 2}
  - {fileID: 11400000, guid: 9a6786758d23e2e4685ca786aa643449, type: 2}
  - {fileID: 11400000, guid: 8a27a9e0939b8af488d678b1f85674dd, type: 2}
  timeGiven: 15
  difficulty: 1
  gradeLevel: 1
