%YAML 1.1
%TAG !u! tag:unity3d.com,2011:
--- !u!1 &184006571834540056
GameObject:
  m_ObjectHideFlags: 0
  m_CorrespondingSourceObject: {fileID: 0}
  m_PrefabInstance: {fileID: 0}
  m_PrefabAsset: {fileID: 0}
  serializedVersion: 6
  m_Component:
  - component: {fileID: 2470303717266459187}
  - component: {fileID: -8415349361533555686}
  m_Layer: 0
  m_Name: 6GradeEasy
  m_TagString: Untagged
  m_Icon: {fileID: 0}
  m_NavMeshLayer: 0
  m_StaticEditorFlags: 0
  m_IsActive: 1
--- !u!4 &2470303717266459187
Transform:
  m_ObjectHideFlags: 0
  m_CorrespondingSourceObject: {fileID: 0}
  m_PrefabInstance: {fileID: 0}
  m_PrefabAsset: {fileID: 0}
  m_GameObject: {fileID: 184006571834540056}
  m_LocalRotation: {x: 0, y: 0, z: 0, w: 1}
  m_LocalPosition: {x: 0, y: 0, z: 0}
  m_LocalScale: {x: 1, y: 1, z: 1}
  m_Children: []
  m_Father: {fileID: 0}
  m_RootOrder: 0
  m_LocalEulerAnglesHint: {x: 0, y: 0, z: 0}
--- !u!114 &-8415349361533555686
MonoBehaviour:
  m_ObjectHideFlags: 0
  m_CorrespondingSourceObject: {fileID: 0}
  m_PrefabInstance: {fileID: 0}
  m_PrefabAsset: {fileID: 0}
  m_GameObject: {fileID: 184006571834540056}
  m_Enabled: 1
  m_EditorHideFlags: 0
  m_Script: {fileID: 11500000, guid: 362997957ad91874c94e969b76f5a2b2, type: 3}
  m_Name: 
  m_EditorClassIdentifier: 
  MyWords:
  - {fileID: 11400000, guid: be38a6d6cb4b30e4aaa4b275b5164d56, type: 2}
  - {fileID: 11400000, guid: 7012260a36385c84896f0927844fe7f0, type: 2}
  - {fileID: 11400000, guid: 3c3d5dc5da8f75e48a1ac69c534b63ed, type: 2}
  - {fileID: 11400000, guid: f7bf62db7d3e3ee4e8e7d95446c93f8c, type: 2}
  - {fileID: 11400000, guid: cf2ee941ad52efc42af0c10c98ce99e5, type: 2}
  - {fileID: 11400000, guid: ea113a30b6ec30b4880af9b24f6da1c1, type: 2}
  - {fileID: 11400000, guid: fc33983b97c5cfa4b91e863d8356d798, type: 2}
  - {fileID: 11400000, guid: eddc4b2e81ca3854b8926bee7ae7d55f, type: 2}
  - {fileID: 11400000, guid: ed2efb52e0b169347b06914b49f8534b, type: 2}
  - {fileID: 11400000, guid: 4ed21478a540d654ab54730d386bd2b8, type: 2}
  - {fileID: 11400000, guid: 1ca73c790e7b93a4b9acfa756de883fc, type: 2}
  - {fileID: 11400000, guid: 21ecc937b580ac649a28f6440108a8d4, type: 2}
  - {fileID: 11400000, guid: 194f86e6b6b68ee46a5d7605217ec0bd, type: 2}
  - {fileID: 11400000, guid: c9b261bd948cf5849bf2eacc49333e1e, type: 2}
  - {fileID: 11400000, guid: 1d08b53f33b8fd6498ca5dbc5068a37b, type: 2}
  - {fileID: 11400000, guid: 069cc43dda4e63646bec0a21b3a4f91e, type: 2}
  - {fileID: 11400000, guid: 98fe55be8a44fb64b9c65bb047cd6141, type: 2}
  - {fileID: 11400000, guid: 3b9da4e3df04fae46bee5232e950b7c3, type: 2}
  - {fileID: 11400000, guid: acc03071177f46441bbd0b1e8255fc64, type: 2}
  - {fileID: 11400000, guid: 8aa3f6fe4077258439f0ee07b93fbae6, type: 2}
  - {fileID: 11400000, guid: c36d699a7f3fdc949862eb3d081ac932, type: 2}
  - {fileID: 11400000, guid: d8a32daedaab6064e84913a6d6215528, type: 2}
  - {fileID: 11400000, guid: 1bcb8f5d48c4f9d408f92af1139d2d11, type: 2}
  - {fileID: 11400000, guid: 58f63fcc6286e0945b9e54e2aa34d9f6, type: 2}
  - {fileID: 11400000, guid: a76a96fe1365efd46b029e204f957af8, type: 2}
  - {fileID: 11400000, guid: 9490358cb655e1e48a29e5ec6c1b6d9f, type: 2}
  - {fileID: 11400000, guid: f7fb433df9aa0f44fbed555f939b9d7a, type: 2}
  - {fileID: 11400000, guid: 979555e843345984b9c0fb97e074d1d4, type: 2}
  - {fileID: 11400000, guid: 4babceb90c87eb746b6c3ad8c01cf31c, type: 2}
  - {fileID: 11400000, guid: 90c7b648eb5753d419c21462dbbb61be, type: 2}
  timeGiven: 10
  difficulty: 0
  gradeLevel: 5
