%YAML 1.1
%TAG !u! tag:unity3d.com,2011:
--- !u!1 &7514501141404165145
GameObject:
  m_ObjectHideFlags: 0
  m_CorrespondingSourceObject: {fileID: 0}
  m_PrefabInstance: {fileID: 0}
  m_PrefabAsset: {fileID: 0}
  serializedVersion: 6
  m_Component:
  - component: {fileID: 535136454481209536}
  - component: {fileID: 567371239234509653}
  m_Layer: 0
  m_Name: TutorialHard
  m_TagString: Untagged
  m_Icon: {fileID: 0}
  m_NavMeshLayer: 0
  m_StaticEditorFlags: 0
  m_IsActive: 1
--- !u!4 &535136454481209536
Transform:
  m_ObjectHideFlags: 0
  m_CorrespondingSourceObject: {fileID: 0}
  m_PrefabInstance: {fileID: 0}
  m_PrefabAsset: {fileID: 0}
  m_GameObject: {fileID: 7514501141404165145}
  m_LocalRotation: {x: 0, y: 0, z: 0, w: 1}
  m_LocalPosition: {x: 0, y: 0, z: 0}
  m_LocalScale: {x: 1, y: 1, z: 1}
  m_Children: []
  m_Father: {fileID: 0}
  m_RootOrder: 0
  m_LocalEulerAnglesHint: {x: 0, y: 0, z: 0}
--- !u!114 &567371239234509653
MonoBehaviour:
  m_ObjectHideFlags: 0
  m_CorrespondingSourceObject: {fileID: 0}
  m_PrefabInstance: {fileID: 0}
  m_PrefabAsset: {fileID: 0}
  m_GameObject: {fileID: 7514501141404165145}
  m_Enabled: 1
  m_EditorHideFlags: 0
  m_Script: {fileID: 11500000, guid: 362997957ad91874c94e969b76f5a2b2, type: 3}
  m_Name: 
  m_EditorClassIdentifier: 
  MyWords:
  - {fileID: 11400000, guid: 79c9989e1b071f142bd2ff96a06e9a41, type: 2}
  - {fileID: 11400000, guid: 4c3c58f2186236f478f8b546bae35d42, type: 2}
  - {fileID: 11400000, guid: c8262510074fd8444a4004af950ea150, type: 2}
  timeGiven: 18
  difficulty: 2
