%YAML 1.1
%TAG !u! tag:unity3d.com,2011:
--- !u!114 &11400000
MonoBehaviour:
  m_ObjectHideFlags: 0
  m_CorrespondingSourceObject: {fileID: 0}
  m_PrefabInstance: {fileID: 0}
  m_PrefabAsset: {fileID: 0}
  m_GameObject: {fileID: 0}
  m_Enabled: 1
  m_EditorHideFlags: 0
  m_Script: {fileID: 11500000, guid: 3e9d9a718640cb44a959150e4e7cbc7d, type: 3}
  m_Name: Cake
  m_EditorClassIdentifier: 
  myDifficulty: 2
  word: cake
  myImage: {fileID: 21300000, guid: 97bc3e67c5505df428a8d3a058cea786, type: 3}
  myAudio: {fileID: -6707905647555553127, guid: 066cad29a5484ca42b3df8f4275e91fb, type: 3}
  beforeBlank: 'A birthday '
  afterBlank: ' for me.'
