%YAML 1.1
%TAG !u! tag:unity3d.com,2011:
--- !u!114 &11400000
MonoBehaviour:
  m_ObjectHideFlags: 0
  m_CorrespondingSourceObject: {fileID: 0}
  m_PrefabInstance: {fileID: 0}
  m_PrefabAsset: {fileID: 0}
  m_GameObject: {fileID: 0}
  m_Enabled: 1
  m_EditorHideFlags: 0
  m_Script: {fileID: 11500000, guid: 3e9d9a718640cb44a959150e4e7cbc7d, type: 3}
  m_Name: Crown
  m_EditorClassIdentifier: 
  myDifficulty: 2
  word: crown
  myImage: {fileID: 21300000, guid: 28648c5e76af7af4ba7a9b0f4eca1e38, type: 3}
  myAudio: {fileID: -3027170542106360444, guid: 8ec22f5cbaf00744e955c24d5a247be8, type: 3}
  beforeBlank: 'I bestow a '
  afterBlank: ' on my head.'
