%YAML 1.1
%TAG !u! tag:unity3d.com,2011:
--- !u!114 &11400000
MonoBehaviour:
  m_ObjectHideFlags: 0
  m_CorrespondingSourceObject: {fileID: 0}
  m_PrefabInstance: {fileID: 0}
  m_PrefabAsset: {fileID: 0}
  m_GameObject: {fileID: 0}
  m_Enabled: 1
  m_EditorHideFlags: 0
  m_Script: {fileID: 11500000, guid: 3e9d9a718640cb44a959150e4e7cbc7d, type: 3}
  m_Name: Desk
  m_EditorClassIdentifier: 
  myDifficulty: 2
  word: desk
  myImage: {fileID: 21300000, guid: 35eeb79ccf1a3af44a1fcb56ebd2a40a, type: 3}
  myAudio: {fileID: 2156603134030831965, guid: e6b2251f8114e594fa152cc7b6cbf359, type: 3}
  beforeBlank: 'I keep my '
  afterBlank: ' organized.'
