%YAML 1.1
%TAG !u! tag:unity3d.com,2011:
--- !u!114 &11400000
MonoBehaviour:
  m_ObjectHideFlags: 0
  m_CorrespondingSourceObject: {fileID: 0}
  m_PrefabInstance: {fileID: 0}
  m_PrefabAsset: {fileID: 0}
  m_GameObject: {fileID: 0}
  m_Enabled: 1
  m_EditorHideFlags: 0
  m_Script: {fileID: 11500000, guid: 3e9d9a718640cb44a959150e4e7cbc7d, type: 3}
  m_Name: Little
  m_EditorClassIdentifier: 
  myDifficulty: 2
  word: little
  myImage: {fileID: 21300000, guid: 9ad4c58b72156574aba6235b1de752dc, type: 3}
  myAudio: {fileID: -830507685725403777, guid: e1c68d8674c2b47479faba70d9897a83, type: 3}
  beforeBlank: 'Two '
  afterBlank: ' golden retrievers.'
