%YAML 1.1
%TAG !u! tag:unity3d.com,2011:
--- !u!114 &11400000
MonoBehaviour:
  m_ObjectHideFlags: 0
  m_CorrespondingSourceObject: {fileID: 0}
  m_PrefabInstance: {fileID: 0}
  m_PrefabAsset: {fileID: 0}
  m_GameObject: {fileID: 0}
  m_Enabled: 1
  m_EditorHideFlags: 0
  m_Script: {fileID: 11500000, guid: 3e9d9a718640cb44a959150e4e7cbc7d, type: 3}
  m_Name: Admire
  m_EditorClassIdentifier: 
  myDifficulty: 1
  word: admire
  myImage: {fileID: 21300000, guid: ea7a45e3cea4c554ebf05907efabea28, type: 3}
  myAudio: {fileID: -7901207130786577608, guid: 24478991d9c81c5498487119561a6047, type: 3}
  beforeBlank: 'I '
  afterBlank: ' him singing for me.'
