%YAML 1.1
%TAG !u! tag:unity3d.com,2011:
--- !u!114 &11400000
MonoBehaviour:
  m_ObjectHideFlags: 0
  m_CorrespondingSourceObject: {fileID: 0}
  m_PrefabInstance: {fileID: 0}
  m_PrefabAsset: {fileID: 0}
  m_GameObject: {fileID: 0}
  m_Enabled: 1
  m_EditorHideFlags: 0
  m_Script: {fileID: 11500000, guid: 3e9d9a718640cb44a959150e4e7cbc7d, type: 3}
  m_Name: Site
  m_EditorClassIdentifier: 
  myDifficulty: 1
  word: site
  myImage: {fileID: 21300000, guid: 0f95935d1d082d941b754bf7193be05d, type: 3}
  myAudio: {fileID: 7856056133165750784, guid: 7d4d0b79d7ca3a4488bb6ed82763d34e, type: 3}
  beforeBlank: 'I shouldn''t be near a construction '
  afterBlank: .
