%YAML 1.1
%TAG !u! tag:unity3d.com,2011:
--- !u!114 &11400000
MonoBehaviour:
  m_ObjectHideFlags: 0
  m_CorrespondingSourceObject: {fileID: 0}
  m_PrefabInstance: {fileID: 0}
  m_PrefabAsset: {fileID: 0}
  m_GameObject: {fileID: 0}
  m_Enabled: 1
  m_EditorHideFlags: 0
  m_Script: {fileID: 11500000, guid: 3e9d9a718640cb44a959150e4e7cbc7d, type: 3}
  m_Name: Eat
  m_EditorClassIdentifier: 
  myDifficulty: 0
  word: eat
  myImage: {fileID: 21300000, guid: 1553f6b2e928d5848bd4895407a1bccd, type: 3}
  myAudio: {fileID: -3666811687003277778, guid: fb1cd3d3f67575442afe6fbdaea3e583, type: 3}
  beforeBlank: 'Let''s '
  afterBlank: ' some mini burgers.'
