%YAML 1.1
%TAG !u! tag:unity3d.com,2011:
--- !u!114 &11400000
MonoBehaviour:
  m_ObjectHideFlags: 0
  m_CorrespondingSourceObject: {fileID: 0}
  m_PrefabInstance: {fileID: 0}
  m_PrefabAsset: {fileID: 0}
  m_GameObject: {fileID: 0}
  m_Enabled: 1
  m_EditorHideFlags: 0
  m_Script: {fileID: 11500000, guid: 3e9d9a718640cb44a959150e4e7cbc7d, type: 3}
  m_Name: That
  m_EditorClassIdentifier: 
  myDifficulty: 0
  word: That
  myImage: {fileID: 21300000, guid: 3be7870e2594ece48b164234a683e629, type: 3}
  myAudio: {fileID: -1252088462693329795, guid: 39efdc6956a1d0e4788f619431ca0a18, type: 3}
  beforeBlank: 
  afterBlank: ' is the sun going down.'
