%YAML 1.1
%TAG !u! tag:unity3d.com,2011:
--- !u!114 &11400000
MonoBehaviour:
  m_ObjectHideFlags: 0
  m_CorrespondingSourceObject: {fileID: 0}
  m_PrefabInstance: {fileID: 0}
  m_PrefabAsset: {fileID: 0}
  m_GameObject: {fileID: 0}
  m_Enabled: 1
  m_EditorHideFlags: 0
  m_Script: {fileID: 11500000, guid: 3e9d9a718640cb44a959150e4e7cbc7d, type: 3}
  m_Name: The
  m_EditorClassIdentifier: 
  myDifficulty: 0
  word: The
  myImage: {fileID: 21300000, guid: 5778935e50eea6a418833ce63e51f7d5, type: 3}
  myAudio: {fileID: 2071501632742894750, guid: 5a726f902b0cb0846a58e9cf2a331418, type: 3}
  beforeBlank: 
  afterBlank: ' cat has yellow eyes.'
