%YAML 1.1
%TAG !u! tag:unity3d.com,2011:
--- !u!114 &11400000
MonoBehaviour:
  m_ObjectHideFlags: 0
  m_CorrespondingSourceObject: {fileID: 0}
  m_PrefabInstance: {fileID: 0}
  m_PrefabAsset: {fileID: 0}
  m_GameObject: {fileID: 0}
  m_Enabled: 1
  m_EditorHideFlags: 0
  m_Script: {fileID: 11500000, guid: 3e9d9a718640cb44a959150e4e7cbc7d, type: 3}
  m_Name: Yes
  m_EditorClassIdentifier: 
  myDifficulty: 0
  word: Yes
  myImage: {fileID: 21300000, guid: 0dcc09b506711d34a94a1f0dc3b2aab5, type: 3}
  myAudio: {fileID: 5546262432900284434, guid: d887efba31a0d304db1a44713a00ff77, type: 3}
  beforeBlank: 
  afterBlank: ' or no?'
