%YAML 1.1
%TAG !u! tag:unity3d.com,2011:
--- !u!74 &7400000
AnimationClip:
  m_ObjectHideFlags: 0
  m_CorrespondingSourceObject: {fileID: 0}
  m_PrefabInstance: {fileID: 0}
  m_PrefabAsset: {fileID: 0}
  m_Name: Check
  serializedVersion: 6
  m_Legacy: 0
  m_Compressed: 0
  m_UseHighQualityCurve: 1
  m_RotationCurves: []
  m_CompressedRotationCurves: []
  m_EulerCurves: []
  m_PositionCurves: []
  m_ScaleCurves: []
  m_FloatCurves: []
  m_PPtrCurves:
  - curve:
    - time: 0
      value: {fileID: 21300000, guid: 74b545e21921f6d419fd334e429e10fb, type: 3}
    - time: 0.06666667
      value: {fileID: 21300000, guid: d8883e3b61f7d324a9a109aa3db108d9, type: 3}
    - time: 0.13333334
      value: {fileID: 21300000, guid: 732fe719a0caa824a9c2ec9b0c5a12e4, type: 3}
    - time: 0.2
      value: {fileID: 21300000, guid: 02186245a2cc7554199b0d406124df26, type: 3}
    - time: 0.26666668
      value: {fileID: 21300000, guid: 0674adbd6d790684799e2a4b3762b512, type: 3}
    - time: 0.33333334
      value: {fileID: 21300000, guid: 0d0a02ab62193ba438958fdea7884bb0, type: 3}
    - time: 0.4
      value: {fileID: 21300000, guid: c1a2be17e2b96854583f75042155de06, type: 3}
    - time: 0.46666667
      value: {fileID: 21300000, guid: 21e8fa442680efe43b4562594edae3dc, type: 3}
    attribute: m_Sprite
    path: 
    classID: 114
    script: {fileID: 11500000, guid: fe87c0e1cc204ed48ad3b37840f39efc, type: 3}
  m_SampleRate: 15
  m_WrapMode: 0
  m_Bounds:
    m_Center: {x: 0, y: 0, z: 0}
    m_Extent: {x: 0, y: 0, z: 0}
  m_ClipBindingConstant:
    genericBindings:
    - serializedVersion: 2
      path: 0
      attribute: 2015549526
      script: {fileID: 11500000, guid: fe87c0e1cc204ed48ad3b37840f39efc, type: 3}
      typeID: 114
      customType: 0
      isPPtrCurve: 1
    pptrCurveMapping:
    - {fileID: 21300000, guid: 74b545e21921f6d419fd334e429e10fb, type: 3}
    - {fileID: 21300000, guid: d8883e3b61f7d324a9a109aa3db108d9, type: 3}
    - {fileID: 21300000, guid: 732fe719a0caa824a9c2ec9b0c5a12e4, type: 3}
    - {fileID: 21300000, guid: 02186245a2cc7554199b0d406124df26, type: 3}
    - {fileID: 21300000, guid: 0674adbd6d790684799e2a4b3762b512, type: 3}
    - {fileID: 21300000, guid: 0d0a02ab62193ba438958fdea7884bb0, type: 3}
    - {fileID: 21300000, guid: c1a2be17e2b96854583f75042155de06, type: 3}
    - {fileID: 21300000, guid: 21e8fa442680efe43b4562594edae3dc, type: 3}
  m_AnimationClipSettings:
    serializedVersion: 2
    m_AdditiveReferencePoseClip: {fileID: 0}
    m_AdditiveReferencePoseTime: 0
    m_StartTime: 0
    m_StopTime: 0.53333336
    m_OrientationOffsetY: 0
    m_Level: 0
    m_CycleOffset: 0
    m_HasAdditiveReferencePose: 0
    m_LoopTime: 0
    m_LoopBlend: 0
    m_LoopBlendOrientation: 0
    m_LoopBlendPositionY: 0
    m_LoopBlendPositionXZ: 0
    m_KeepOriginalOrientation: 0
    m_KeepOriginalPositionY: 1
    m_KeepOriginalPositionXZ: 0
    m_HeightFromFeet: 0
    m_Mirror: 0
  m_EditorCurves: []
  m_EulerEditorCurves: []
  m_HasGenericRootTransform: 0
  m_HasMotionFloatCurves: 0
  m_Events: []
