%YAML 1.1
%TAG !u! tag:unity3d.com,2011:
--- !u!114 &11400000
MonoBehaviour:
  m_ObjectHideFlags: 0
  m_CorrespondingSourceObject: {fileID: 0}
  m_PrefabInstance: {fileID: 0}
  m_PrefabAsset: {fileID: 0}
  m_GameObject: {fileID: 0}
  m_Enabled: 1
  m_EditorHideFlags: 0
  m_Script: {fileID: 11500000, guid: 3e9d9a718640cb44a959150e4e7cbc7d, type: 3}
  m_Name: Been
  m_EditorClassIdentifier: 
  myDifficulty: 1
  word: been
  myImage: {fileID: 21300000, guid: ffcd2f243a3d259429aceabde6b9cd3a, type: 3}
  myAudio: {fileID: -1879764449858236980, guid: 1585b6dc3d713a042b57bb7b1d413cad, type: 3}
  beforeBlank: 'I have never '
  afterBlank: ' happier.'
