%YAML 1.1
%TAG !u! tag:unity3d.com,2011:
--- !u!114 &11400000
MonoBehaviour:
  m_ObjectHideFlags: 0
  m_CorrespondingSourceObject: {fileID: 0}
  m_PrefabInstance: {fileID: 0}
  m_PrefabAsset: {fileID: 0}
  m_GameObject: {fileID: 0}
  m_Enabled: 1
  m_EditorHideFlags: 0
  m_Script: {fileID: 11500000, guid: 3e9d9a718640cb44a959150e4e7cbc7d, type: 3}
  m_Name: Here
  m_EditorClassIdentifier: 
  myDifficulty: 1
  word: here
  myImage: {fileID: 21300000, guid: b8ac7f794f7930447a0345980dad5189, type: 3}
  myAudio: {fileID: 7858501867594557874, guid: e952f0db5f1026548800181c86a10a82, type: 3}
  beforeBlank: 'We are '
  afterBlank: ' for each other.'
