%YAML 1.1
%TAG !u! tag:unity3d.com,2011:
--- !u!114 &11400000
MonoBehaviour:
  m_ObjectHideFlags: 0
  m_CorrespondingSourceObject: {fileID: 0}
  m_PrefabInstance: {fileID: 0}
  m_PrefabAsset: {fileID: 0}
  m_GameObject: {fileID: 0}
  m_Enabled: 1
  m_EditorHideFlags: 0
  m_Script: {fileID: 11500000, guid: 3e9d9a718640cb44a959150e4e7cbc7d, type: 3}
  m_Name: Add
  m_EditorClassIdentifier: 
  myDifficulty: 0
  word: add
  myImage: {fileID: 21300000, guid: e61c665b6d0eebe4f97306292206cc81, type: 3}
  myAudio: {fileID: 7343578827470291824, guid: b70395cd39a6bf54bbde82373da33319, type: 3}
  beforeBlank: 'I''ll '
  afterBlank: ' some more oil.'
