%YAML 1.1
%TAG !u! tag:unity3d.com,2011:
--- !u!114 &11400000
MonoBehaviour:
  m_ObjectHideFlags: 0
  m_CorrespondingSourceObject: {fileID: 0}
  m_PrefabInstance: {fileID: 0}
  m_PrefabAsset: {fileID: 0}
  m_GameObject: {fileID: 0}
  m_Enabled: 1
  m_EditorHideFlags: 0
  m_Script: {fileID: 11500000, guid: 3e9d9a718640cb44a959150e4e7cbc7d, type: 3}
  m_Name: Adjust
  m_EditorClassIdentifier: 
  myDifficulty: 0
  word: adjust
  myImage: {fileID: 21300000, guid: c4aa02cc72b833548bf6d9d5c803054a, type: 3}
  myAudio: {fileID: -2100750834761587471, guid: 9cbf784d36bd51842a19a16e221162dc, type: 3}
  beforeBlank: 'I have to '
  afterBlank: ' the time on my watch.'
