%YAML 1.1
%TAG !u! tag:unity3d.com,2011:
--- !u!114 &11400000
MonoBehaviour:
  m_ObjectHideFlags: 0
  m_CorrespondingSourceObject: {fileID: 0}
  m_PrefabInstance: {fileID: 0}
  m_PrefabAsset: {fileID: 0}
  m_GameObject: {fileID: 0}
  m_Enabled: 1
  m_EditorHideFlags: 0
  m_Script: {fileID: 11500000, guid: 3e9d9a718640cb44a959150e4e7cbc7d, type: 3}
  m_Name: Feet
  m_EditorClassIdentifier: 
  myDifficulty: 0
  word: feet
  myImage: {fileID: 21300000, guid: 4b74bf8f306c1e641b4ae0fe13883b69, type: 3}
  myAudio: {fileID: 5137270716825983018, guid: f5cd060006452e149ac196c6083c2ea9, type: 3}
  beforeBlank: 'My '
  afterBlank: ' feels sandy.'
