%YAML 1.1
%TAG !u! tag:unity3d.com,2011:
--- !u!114 &11400000
MonoBehaviour:
  m_ObjectHideFlags: 0
  m_CorrespondingSourceObject: {fileID: 0}
  m_PrefabInstance: {fileID: 0}
  m_PrefabAsset: {fileID: 0}
  m_GameObject: {fileID: 0}
  m_Enabled: 1
  m_EditorHideFlags: 0
  m_Script: {fileID: 11500000, guid: 3e9d9a718640cb44a959150e4e7cbc7d, type: 3}
  m_Name: Curtain
  m_EditorClassIdentifier: 
  myDifficulty: 2
  word: curtain
  myImage: {fileID: 21300000, guid: 623561ff7017c3341bb0f46f00226422, type: 3}
  myAudio: {fileID: 6445076403732690591, guid: 88b4de71ed7bc7d44b1519d06f441fe6, type: 3}
  beforeBlank: 'The color of the '
  afterBlank: ' is red.'
