%YAML 1.1
%TAG !u! tag:unity3d.com,2011:
--- !u!114 &11400000
MonoBehaviour:
  m_ObjectHideFlags: 0
  m_CorrespondingSourceObject: {fileID: 0}
  m_PrefabInstance: {fileID: 0}
  m_PrefabAsset: {fileID: 0}
  m_GameObject: {fileID: 0}
  m_Enabled: 1
  m_EditorHideFlags: 0
  m_Script: {fileID: 11500000, guid: 3e9d9a718640cb44a959150e4e7cbc7d, type: 3}
  m_Name: Fan
  m_EditorClassIdentifier: 
  myDifficulty: 0
  word: fan
  myImage: {fileID: 21300000, guid: 97cef691fa1917c4087b799f560e470b, type: 3}
  myAudio: {fileID: 2762600192540657262, guid: cac1445983a13a249aae62c2185b0e58, type: 3}
  beforeBlank: 'It''s hot I need a '
  afterBlank: .
