%YAML 1.1
%TAG !u! tag:unity3d.com,2011:
--- !u!114 &11400000
MonoBehaviour:
  m_ObjectHideFlags: 0
  m_CorrespondingSourceObject: {fileID: 0}
  m_PrefabInstance: {fileID: 0}
  m_PrefabAsset: {fileID: 0}
  m_GameObject: {fileID: 0}
  m_Enabled: 1
  m_EditorHideFlags: 0
  m_Script: {fileID: 11500000, guid: 3e9d9a718640cb44a959150e4e7cbc7d, type: 3}
  m_Name: Hut
  m_EditorClassIdentifier: 
  myDifficulty: 0
  word: hut
  myImage: {fileID: 21300000, guid: 10c3bce3691b8c74484e3fec75684804, type: 3}
  myAudio: {fileID: -9176952861780467111, guid: 48a9a79402c84ca40afe866153359ffd, type: 3}
  beforeBlank: 'A '
  afterBlank: ' beside a pool.'
