%YAML 1.1
%TAG !u! tag:unity3d.com,2011:
--- !u!114 &11400000
MonoBehaviour:
  m_ObjectHideFlags: 0
  m_CorrespondingSourceObject: {fileID: 0}
  m_PrefabInstance: {fileID: 0}
  m_PrefabAsset: {fileID: 0}
  m_GameObject: {fileID: 0}
  m_Enabled: 1
  m_EditorHideFlags: 0
  m_Script: {fileID: 11500000, guid: 3e9d9a718640cb44a959150e4e7cbc7d, type: 3}
  m_Name: Jet
  m_EditorClassIdentifier: 
  myDifficulty: 0
  word: jet
  myImage: {fileID: 21300000, guid: d3490b84df2f27949b1948fab1fcfe43, type: 3}
  myAudio: {fileID: 1537485858246902970, guid: 104f86872c0848640937c1c4b6261e7f, type: 3}
  beforeBlank: 'There is a '
  afterBlank: ' in the sky!'
