%YAML 1.1
%TAG !u! tag:unity3d.com,2011:
--- !u!114 &11400000
MonoBehaviour:
  m_ObjectHideFlags: 0
  m_CorrespondingSourceObject: {fileID: 0}
  m_PrefabInstance: {fileID: 0}
  m_PrefabAsset: {fileID: 0}
  m_GameObject: {fileID: 0}
  m_Enabled: 1
  m_EditorHideFlags: 0
  m_Script: {fileID: 11500000, guid: 3e9d9a718640cb44a959150e4e7cbc7d, type: 3}
  m_Name: Sat
  m_EditorClassIdentifier: 
  myDifficulty: 0
  word: sat
  myImage: {fileID: 21300000, guid: 41045e14735177c408a0d1c5dfb3164e, type: 3}
  myAudio: {fileID: -747223120547592526, guid: 7290703c51da7eb42b94ce2a8be0ce4d, type: 3}
  beforeBlank: 'She '
  afterBlank: ' on the road.'
