%YAML 1.1
%TAG !u! tag:unity3d.com,2011:
--- !u!78 &1
TagManager:
  serializedVersion: 2
  tags:
  - Banana
  layers:
  - Default
  - TransparentFX
  - Ignore Raycast
  - 
  - Water
  - UI
  - Unselectable
  - NotBlockCollider
  - Banana
  - VFX
  - 
  - 
  - 
  - 
  - 
  - 
  - 
  - 
  - 
  - 
  - 
  - 
  - 
  - 
  - 
  - 
  - 
  - 
  - 
  - 
  - 
  - 
  m_SortingLayers:
  - name: BG
    uniqueID: 2512662645
    locked: 0
  - name: Default
    uniqueID: 0
    locked: 0
  - name: Clouds
    uniqueID: 4200949729
    locked: 0
  - name: UI
    uniqueID: 4232223963
    locked: 0
  - name: Particles
    uniqueID: 2374503073
    locked: 0
