%YAML 1.1
%TAG !u! tag:unity3d.com,2011:
--- !u!114 &11400000
MonoBehaviour:
  m_ObjectHideFlags: 0
  m_CorrespondingSourceObject: {fileID: 0}
  m_PrefabInstance: {fileID: 0}
  m_PrefabAsset: {fileID: 0}
  m_GameObject: {fileID: 0}
  m_Enabled: 1
  m_EditorHideFlags: 0
  m_Script: {fileID: 11500000, guid: 3e9d9a718640cb44a959150e4e7cbc7d, type: 3}
  m_Name: Bottles
  m_EditorClassIdentifier: 
  myDifficulty: 1
  word: bottles
  myImage: {fileID: 21300000, guid: 1e145afea97870742af22a757c2ada67, type: 3}
  myAudio: {fileID: 7387062856060554138, guid: 26a1c168ceac66f47a0a294c52cd32ef, type: 3}
  beforeBlank: 'A few '
  afterBlank: ' of coke.'
