%YAML 1.1
%TAG !u! tag:unity3d.com,2011:
--- !u!114 &11400000
MonoBehaviour:
  m_ObjectHideFlags: 0
  m_CorrespondingSourceObject: {fileID: 0}
  m_PrefabInstance: {fileID: 0}
  m_PrefabAsset: {fileID: 0}
  m_GameObject: {fileID: 0}
  m_Enabled: 1
  m_EditorHideFlags: 0
  m_Script: {fileID: 11500000, guid: 3e9d9a718640cb44a959150e4e7cbc7d, type: 3}
  m_Name: Notebook
  m_EditorClassIdentifier: 
  myDifficulty: 1
  word: notebook
  myImage: {fileID: 21300000, guid: 89c407bd79f092e45acbfd22042547b9, type: 3}
  myAudio: {fileID: -4078384568002982449, guid: 7905aa6a22133ac4098d7b1e934b9f61, type: 3}
  beforeBlank: 'My '
  afterBlank: ' is blank.'
