%YAML 1.1
%TAG !u! tag:unity3d.com,2011:
--- !u!114 &11400000
MonoBehaviour:
  m_ObjectHideFlags: 0
  m_CorrespondingSourceObject: {fileID: 0}
  m_PrefabInstance: {fileID: 0}
  m_PrefabAsset: {fileID: 0}
  m_GameObject: {fileID: 0}
  m_Enabled: 1
  m_EditorHideFlags: 0
  m_Script: {fileID: 11500000, guid: 3e9d9a718640cb44a959150e4e7cbc7d, type: 3}
  m_Name: Taught
  m_EditorClassIdentifier: 
  myDifficulty: 1
  word: taught
  myImage: {fileID: 21300000, guid: 9317230cc28eb3948b6612516dc46d48, type: 3}
  myAudio: {fileID: -3381756517994665008, guid: 169c8ceda4820af43817ce08cc554101, type: 3}
  beforeBlank: 'My father '
  afterBlank: ' me how to bike.'
