%YAML 1.1
%TAG !u! tag:unity3d.com,2011:
--- !u!114 &11400000
MonoBehaviour:
  m_ObjectHideFlags: 0
  m_CorrespondingSourceObject: {fileID: 0}
  m_PrefabInstance: {fileID: 0}
  m_PrefabAsset: {fileID: 0}
  m_GameObject: {fileID: 0}
  m_Enabled: 1
  m_EditorHideFlags: 0
  m_Script: {fileID: 11500000, guid: 3e9d9a718640cb44a959150e4e7cbc7d, type: 3}
  m_Name: Because
  m_EditorClassIdentifier: 
  myDifficulty: 2
  word: because
  myImage: {fileID: 21300000, guid: 8150980f4e862da4fb36b3bc493ccfc0, type: 3}
  myAudio: {fileID: 8136695350969769323, guid: 275e80e7af3ad0d4a9a30351509e083b, type: 3}
  beforeBlank: 'Just '
  afterBlank: .
