%YAML 1.1
%TAG !u! tag:unity3d.com,2011:
--- !u!114 &11400000
MonoBehaviour:
  m_ObjectHideFlags: 0
  m_CorrespondingSourceObject: {fileID: 0}
  m_PrefabInstance: {fileID: 0}
  m_PrefabAsset: {fileID: 0}
  m_GameObject: {fileID: 0}
  m_Enabled: 1
  m_EditorHideFlags: 0
  m_Script: {fileID: 11500000, guid: 3e9d9a718640cb44a959150e4e7cbc7d, type: 3}
  m_Name: Once
  m_EditorClassIdentifier: 
  myDifficulty: 2
  word: once
  myImage: {fileID: 21300000, guid: 572c28c5bcb4e7943adae15af37c1088, type: 3}
  myAudio: {fileID: -5832954749721600044, guid: 327036a3d079a3c43a2af8dce9fb3990, type: 3}
  beforeBlank: 'I tried it '
  afterBlank: ' and I loved it.'
