%YAML 1.1
%TAG !u! tag:unity3d.com,2011:
--- !u!114 &11400000
MonoBehaviour:
  m_ObjectHideFlags: 0
  m_CorrespondingSourceObject: {fileID: 0}
  m_PrefabInstance: {fileID: 0}
  m_PrefabAsset: {fileID: 0}
  m_GameObject: {fileID: 0}
  m_Enabled: 1
  m_EditorHideFlags: 0
  m_Script: {fileID: 11500000, guid: 3e9d9a718640cb44a959150e4e7cbc7d, type: 3}
  m_Name: Right
  m_EditorClassIdentifier: 
  myDifficulty: 2
  word: right
  myImage: {fileID: 21300000, guid: b555357a6b94f6a4caad2662ebd040ca, type: 3}
  myAudio: {fileID: -6305289022999118968, guid: 2c9a0349d41d64244a8ef796a4cbb12d, type: 3}
  beforeBlank: 'Please go '
  afterBlank: .
