%YAML 1.1
%TAG !u! tag:unity3d.com,2011:
--- !u!114 &11400000
MonoBehaviour:
  m_ObjectHideFlags: 0
  m_CorrespondingSourceObject: {fileID: 0}
  m_PrefabInstance: {fileID: 0}
  m_PrefabAsset: {fileID: 0}
  m_GameObject: {fileID: 0}
  m_Enabled: 1
  m_EditorHideFlags: 0
  m_Script: {fileID: 11500000, guid: 3e9d9a718640cb44a959150e4e7cbc7d, type: 3}
  m_Name: Think
  m_EditorClassIdentifier: 
  myDifficulty: 2
  word: think
  myImage: {fileID: 21300000, guid: c21df40b5a32abe449134d1fc521261f, type: 3}
  myAudio: {fileID: -4274328529185052960, guid: 589bf0275c890c049b94e59632b74277, type: 3}
  beforeBlank: 'I '
  afterBlank: ' I should have a break.'
