%YAML 1.1
%TAG !u! tag:unity3d.com,2011:
--- !u!114 &11400000
MonoBehaviour:
  m_ObjectHideFlags: 0
  m_CorrespondingSourceObject: {fileID: 0}
  m_PrefabInstance: {fileID: 0}
  m_PrefabAsset: {fileID: 0}
  m_GameObject: {fileID: 0}
  m_Enabled: 1
  m_EditorHideFlags: 0
  m_Script: {fileID: 11500000, guid: 3e9d9a718640cb44a959150e4e7cbc7d, type: 3}
  m_Name: Good
  m_EditorClassIdentifier: 
  myDifficulty: 0
  word: Good
  myImage: {fileID: 21300000, guid: fe0cafefd155c0040b487e2a75cdc270, type: 3}
  myAudio: {fileID: 5976724124967004180, guid: 8b20fb85c302fbb47a1e0c7d81860c0c, type: 3}
  beforeBlank: 
  afterBlank: ' job on a work well done!'
